[
  {"a":0,"b":1},
  {"a":0,"b":3},
  {"a":0,"b":4},
  {"a":1,"b":2},
  {"a":1,"b":5},
  {"a":2,"b":6},
  {"a":2,"b":18},
  {"a":3,"b":8},
  {"a":4,"b":5},
  {"a":4,"b":7},
  {"a":5,"b":6},
  {"a":6,"b":19},
  {"a":8,"b":11},
  {"a":9,"b":10},
  {"a":9,"b":13},
  {"a":9,"b":16},
  {"a":10,"b":11},
  {"a":10,"b":14},
  {"a":11,"b":15},
  {"a":12,"b":7},
  {"a":12,"b":15},
  {"a":13,"b":17},
  {"a":13,"b":14},
  {"a":14,"b":15},
  {"a":16,"b":17},
  {"a":16,"b":18},
  {"a":17,"b":19},
  {"a":18,"b":19}
]